GRUPO E
…
##  [1] "irrigado.G01" "sequia.G01"   "irrigado.G02" "sequia.G02"   "irrigado.G03"
##  [6] "sequia.G03"   "irrigado.G04" "sequia.G04"   "irrigado.G05" "sequia.G05"  
## [11] "irrigado.G06" "sequia.G06"   "irrigado.G07" "sequia.G07"   "irrigado.G08"
## [16] "sequia.G08"   "irrigado.G09" "sequia.G09"   "irrigado.G10" "sequia.G10"  
## [21] "irrigado.G11" "sequia.G11"   "irrigado.G12" "sequia.G12"   "irrigado.G13"
## [26] "sequia.G13"   "irrigado.G14" "sequia.G14"   "irrigado.G15" "sequia.G15"
library(inti)
model <- remove_outliers(data = fb
                         ,formula = spad_29 ~ riego + geno + riego*geno + (1|bloque)
              ,plot_diag = T
              )
model
## $data
## $data$raw
## # A tibble: 150 × 5
##    index riego    geno  bloque spad_29
##    <chr> <chr>    <chr> <chr>    <dbl>
##  1 1     sequia   G01   II        56.3
##  2 2     sequia   G02   IV        52.7
##  3 3     irrigado G01   III       49.2
##  4 4     sequia   G02   I         55.5
##  5 5     irrigado G03   II        58.2
##  6 6     irrigado G04   V         43.5
##  7 7     irrigado G01   I         57.4
##  8 8     irrigado G05   IV        56.1
##  9 9     sequia   G06   II        61  
## 10 10    sequia   G05   I         60.3
## # ℹ 140 more rows
## 
## $data$clean
##     index    riego geno bloque spad_29
## 1       1   sequia  G01     II   56.30
## 2       2   sequia  G02     IV   52.70
## 3       3 irrigado  G01    III   49.20
## 4       4   sequia  G02      I   55.50
## 5       5 irrigado  G03     II   58.20
…
##  [1] "irrigado.G01" "sequia.G01"   "irrigado.G02" "sequia.G02"   "irrigado.G03"
##  [6] "sequia.G03"   "irrigado.G04" "sequia.G04"   "irrigado.G05" "sequia.G05"  
## [11] "irrigado.G06" "sequia.G06"   "irrigado.G07" "sequia.G07"   "irrigado.G08"
## [16] "sequia.G08"   "irrigado.G09" "sequia.G09"   "irrigado.G10" "sequia.G10"  
## [21] "irrigado.G11" "sequia.G11"   "irrigado.G12" "sequia.G12"   "irrigado.G13"
## [26] "sequia.G13"   "irrigado.G14" "sequia.G14"   "irrigado.G15" "sequia.G15"
library(inti)
model <- remove_outliers(data = fb
                         ,formula = op_84 ~ riego + geno + riego*geno + (1|bloque)
              ,plot_diag = T
              )
model
## $data
## $data$raw
## # A tibble: 150 × 5
##    index riego    geno  bloque op_84
##    <chr> <chr>    <chr> <chr>  <dbl>
##  1 1     sequia   G01   II     -2.43
##  2 2     sequia   G02   IV     -3.03
##  3 3     irrigado G01   III    -2.5 
##  4 4     sequia   G02   I      -2.4 
##  5 5     irrigado G03   II     -2.27
##  6 6     irrigado G04   V      -2.37
##  7 7     irrigado G01   I      -1.77
##  8 8     irrigado G05   IV     -2.33
##  9 9     sequia   G06   II     -3.23
## 10 10    sequia   G05   I      -2.87
## # ℹ 140 more rows
## 
## $data$clean
##     index    riego geno bloque     op_84
## 1       1   sequia  G01     II -2.433333
## 2       2   sequia  G02     IV -3.033333
## 3       3 irrigado  G01    III -2.500000
## 4       4   sequia  G02      I -2.400000
## 5       5 irrigado  G03     II -2.266667
…
##  [1] "irrigado.G01" "sequia.G01"   "irrigado.G02" "sequia.G02"   "irrigado.G03"
##  [6] "sequia.G03"   "irrigado.G04" "sequia.G04"   "irrigado.G05" "sequia.G05"  
## [11] "irrigado.G06" "sequia.G06"   "irrigado.G07" "sequia.G07"   "irrigado.G08"
## [16] "sequia.G08"   "irrigado.G09" "sequia.G09"   "irrigado.G10" "sequia.G10"  
## [21] "irrigado.G11" "sequia.G11"   "irrigado.G12" "sequia.G12"   "irrigado.G13"
## [26] "sequia.G13"   "irrigado.G14" "sequia.G14"   "irrigado.G15" "sequia.G15"
library(inti)
model <- remove_outliers(data = fb
                         ,formula = rwc_84 ~ riego + geno + riego*geno + (1|bloque)
              ,plot_diag = T
              )
model
## $data
## $data$raw
## # A tibble: 150 × 5
##    index riego    geno  bloque rwc_84
##    <chr> <chr>    <chr> <chr>   <dbl>
##  1 1     sequia   G01   II       61.5
##  2 2     sequia   G02   IV       63.2
##  3 3     irrigado G01   III      67.7
##  4 4     sequia   G02   I        64.9
##  5 5     irrigado G03   II       74.5
##  6 6     irrigado G04   V        74.0
##  7 7     irrigado G01   I        72.7
##  8 8     irrigado G05   IV       72.8
##  9 9     sequia   G06   II       59.8
## 10 10    sequia   G05   I        50.8
## # ℹ 140 more rows
## 
## $data$clean
##     index    riego geno bloque   rwc_84
## 1       1   sequia  G01     II 61.48282
## 2       2   sequia  G02     IV 63.15789
## 3       3 irrigado  G01    III 67.72523
## 4       4   sequia  G02      I 64.94483
## 5       5 irrigado  G03     II 74.46429
…
